(['/home/local/ZOHOCORP/somes-8229/Workspace/04_ResAndDev/Python-RemoteExce/source/connection.py'],
 ['/home/local/ZOHOCORP/somes-8229/Workspace/04_ResAndDev/Python-RemoteExce',
  '/home/local/ZOHOCORP/somes-8229/Workspace/04_ResAndDev/Python-RemoteExce/source'],
 ['codecs'],
 [],
 [],
 [],
 False,
 False,
 '2.7.15rc1 (default, Nov 12 2018, 14:31:15) \n[GCC 7.3.0]',
 [('connection',
   '/home/local/ZOHOCORP/somes-8229/Workspace/04_ResAndDev/Python-RemoteExce/source/connection.py',
   'PYSOURCE')],
 [('encodings.aliases',
   '/usr/lib/python2.7/encodings/aliases.py',
   'PYMODULE'),
  ('encodings', '/usr/lib/python2.7/encodings/__init__.py', 'PYMODULE'),
  ('encodings.mbcs', '/usr/lib/python2.7/encodings/mbcs.py', 'PYMODULE'),
  ('encodings.raw_unicode_escape',
   '/usr/lib/python2.7/encodings/raw_unicode_escape.py',
   'PYMODULE'),
  ('encodings.gb18030',
   '/usr/lib/python2.7/encodings/gb18030.py',
   'PYMODULE'),
  ('encodings.shift_jisx0213',
   '/usr/lib/python2.7/encodings/shift_jisx0213.py',
   'PYMODULE'),
  ('encodings.ascii', '/usr/lib/python2.7/encodings/ascii.py', 'PYMODULE'),
  ('encodings.cp861', '/usr/lib/python2.7/encodings/cp861.py', 'PYMODULE'),
  ('encodings.cp860', '/usr/lib/python2.7/encodings/cp860.py', 'PYMODULE'),
  ('encodings.cp863', '/usr/lib/python2.7/encodings/cp863.py', 'PYMODULE'),
  ('encodings.cp862', '/usr/lib/python2.7/encodings/cp862.py', 'PYMODULE'),
  ('encodings.cp865', '/usr/lib/python2.7/encodings/cp865.py', 'PYMODULE'),
  ('encodings.big5hkscs',
   '/usr/lib/python2.7/encodings/big5hkscs.py',
   'PYMODULE'),
  ('encodings.cp866', '/usr/lib/python2.7/encodings/cp866.py', 'PYMODULE'),
  ('encodings.cp869', '/usr/lib/python2.7/encodings/cp869.py', 'PYMODULE'),
  ('encodings.mac_latin2',
   '/usr/lib/python2.7/encodings/mac_latin2.py',
   'PYMODULE'),
  ('encodings.hex_codec',
   '/usr/lib/python2.7/encodings/hex_codec.py',
   'PYMODULE'),
  ('encodings.cp950', '/usr/lib/python2.7/encodings/cp950.py', 'PYMODULE'),
  ('encodings.quopri_codec',
   '/usr/lib/python2.7/encodings/quopri_codec.py',
   'PYMODULE'),
  ('StringIO', '/usr/lib/python2.7/StringIO.py', 'PYMODULE'),
  ('copy_reg', '/usr/lib/python2.7/copy_reg.py', 'PYMODULE'),
  ('types', '/usr/lib/python2.7/types.py', 'PYMODULE'),
  ('quopri', '/usr/lib/python2.7/quopri.py', 'PYMODULE'),
  ('getopt', '/usr/lib/python2.7/getopt.py', 'PYMODULE'),
  ('encodings.utf_32_be',
   '/usr/lib/python2.7/encodings/utf_32_be.py',
   'PYMODULE'),
  ('encodings.string_escape',
   '/usr/lib/python2.7/encodings/string_escape.py',
   'PYMODULE'),
  ('encodings.cp1250', '/usr/lib/python2.7/encodings/cp1250.py', 'PYMODULE'),
  ('encodings.cp1251', '/usr/lib/python2.7/encodings/cp1251.py', 'PYMODULE'),
  ('encodings.cp1252', '/usr/lib/python2.7/encodings/cp1252.py', 'PYMODULE'),
  ('encodings.cp1253', '/usr/lib/python2.7/encodings/cp1253.py', 'PYMODULE'),
  ('encodings.cp1254', '/usr/lib/python2.7/encodings/cp1254.py', 'PYMODULE'),
  ('encodings.cp1255', '/usr/lib/python2.7/encodings/cp1255.py', 'PYMODULE'),
  ('encodings.cp1256', '/usr/lib/python2.7/encodings/cp1256.py', 'PYMODULE'),
  ('encodings.cp1257', '/usr/lib/python2.7/encodings/cp1257.py', 'PYMODULE'),
  ('encodings.cp1258', '/usr/lib/python2.7/encodings/cp1258.py', 'PYMODULE'),
  ('encodings.euc_jp', '/usr/lib/python2.7/encodings/euc_jp.py', 'PYMODULE'),
  ('encodings.hz', '/usr/lib/python2.7/encodings/hz.py', 'PYMODULE'),
  ('encodings.mac_cyrillic',
   '/usr/lib/python2.7/encodings/mac_cyrillic.py',
   'PYMODULE'),
  ('encodings.iso2022_kr',
   '/usr/lib/python2.7/encodings/iso2022_kr.py',
   'PYMODULE'),
  ('encodings.unicode_internal',
   '/usr/lib/python2.7/encodings/unicode_internal.py',
   'PYMODULE'),
  ('encodings.cp500', '/usr/lib/python2.7/encodings/cp500.py', 'PYMODULE'),
  ('encodings.iso8859_10',
   '/usr/lib/python2.7/encodings/iso8859_10.py',
   'PYMODULE'),
  ('encodings.iso8859_11',
   '/usr/lib/python2.7/encodings/iso8859_11.py',
   'PYMODULE'),
  ('encodings.iso8859_13',
   '/usr/lib/python2.7/encodings/iso8859_13.py',
   'PYMODULE'),
  ('encodings.iso8859_14',
   '/usr/lib/python2.7/encodings/iso8859_14.py',
   'PYMODULE'),
  ('encodings.cp424', '/usr/lib/python2.7/encodings/cp424.py', 'PYMODULE'),
  ('encodings.iso8859_16',
   '/usr/lib/python2.7/encodings/iso8859_16.py',
   'PYMODULE'),
  ('encodings.cp1006', '/usr/lib/python2.7/encodings/cp1006.py', 'PYMODULE'),
  ('encodings.hp_roman8',
   '/usr/lib/python2.7/encodings/hp_roman8.py',
   'PYMODULE'),
  ('encodings.charmap',
   '/usr/lib/python2.7/encodings/charmap.py',
   'PYMODULE'),
  ('encodings.utf_32', '/usr/lib/python2.7/encodings/utf_32.py', 'PYMODULE'),
  ('encodings.latin_1',
   '/usr/lib/python2.7/encodings/latin_1.py',
   'PYMODULE'),
  ('encodings.utf_16_be',
   '/usr/lib/python2.7/encodings/utf_16_be.py',
   'PYMODULE'),
  ('encodings.cp737', '/usr/lib/python2.7/encodings/cp737.py', 'PYMODULE'),
  ('encodings.utf_16', '/usr/lib/python2.7/encodings/utf_16.py', 'PYMODULE'),
  ('encodings.cp437', '/usr/lib/python2.7/encodings/cp437.py', 'PYMODULE'),
  ('encodings.mac_roman',
   '/usr/lib/python2.7/encodings/mac_roman.py',
   'PYMODULE'),
  ('encodings.mac_centeuro',
   '/usr/lib/python2.7/encodings/mac_centeuro.py',
   'PYMODULE'),
  ('encodings.mac_croatian',
   '/usr/lib/python2.7/encodings/mac_croatian.py',
   'PYMODULE'),
  ('encodings.punycode',
   '/usr/lib/python2.7/encodings/punycode.py',
   'PYMODULE'),
  ('encodings.unicode_escape',
   '/usr/lib/python2.7/encodings/unicode_escape.py',
   'PYMODULE'),
  ('encodings.bz2_codec',
   '/usr/lib/python2.7/encodings/bz2_codec.py',
   'PYMODULE'),
  ('encodings.rot_13', '/usr/lib/python2.7/encodings/rot_13.py', 'PYMODULE'),
  ('encodings.cp874', '/usr/lib/python2.7/encodings/cp874.py', 'PYMODULE'),
  ('encodings.cp875', '/usr/lib/python2.7/encodings/cp875.py', 'PYMODULE'),
  ('encodings.cp720', '/usr/lib/python2.7/encodings/cp720.py', 'PYMODULE'),
  ('encodings.tis_620',
   '/usr/lib/python2.7/encodings/tis_620.py',
   'PYMODULE'),
  ('encodings.zlib_codec',
   '/usr/lib/python2.7/encodings/zlib_codec.py',
   'PYMODULE'),
  ('encodings.iso2022_jp_2004',
   '/usr/lib/python2.7/encodings/iso2022_jp_2004.py',
   'PYMODULE'),
  ('encodings.euc_jisx0213',
   '/usr/lib/python2.7/encodings/euc_jisx0213.py',
   'PYMODULE'),
  ('encodings.ptcp154',
   '/usr/lib/python2.7/encodings/ptcp154.py',
   'PYMODULE'),
  ('encodings.uu_codec',
   '/usr/lib/python2.7/encodings/uu_codec.py',
   'PYMODULE'),
  ('encodings.utf_16_le',
   '/usr/lib/python2.7/encodings/utf_16_le.py',
   'PYMODULE'),
  ('encodings.iso2022_jp_2',
   '/usr/lib/python2.7/encodings/iso2022_jp_2.py',
   'PYMODULE'),
  ('encodings.iso2022_jp_3',
   '/usr/lib/python2.7/encodings/iso2022_jp_3.py',
   'PYMODULE'),
  ('encodings.iso2022_jp_1',
   '/usr/lib/python2.7/encodings/iso2022_jp_1.py',
   'PYMODULE'),
  ('encodings.mac_romanian',
   '/usr/lib/python2.7/encodings/mac_romanian.py',
   'PYMODULE'),
  ('encodings.cp1026', '/usr/lib/python2.7/encodings/cp1026.py', 'PYMODULE'),
  ('encodings.mac_farsi',
   '/usr/lib/python2.7/encodings/mac_farsi.py',
   'PYMODULE'),
  ('encodings.undefined',
   '/usr/lib/python2.7/encodings/undefined.py',
   'PYMODULE'),
  ('encodings.mac_turkish',
   '/usr/lib/python2.7/encodings/mac_turkish.py',
   'PYMODULE'),
  ('encodings.koi8_u', '/usr/lib/python2.7/encodings/koi8_u.py', 'PYMODULE'),
  ('encodings.koi8_r', '/usr/lib/python2.7/encodings/koi8_r.py', 'PYMODULE'),
  ('encodings.utf_8_sig',
   '/usr/lib/python2.7/encodings/utf_8_sig.py',
   'PYMODULE'),
  ('encodings.iso2022_jp',
   '/usr/lib/python2.7/encodings/iso2022_jp.py',
   'PYMODULE'),
  ('encodings.palmos', '/usr/lib/python2.7/encodings/palmos.py', 'PYMODULE'),
  ('encodings.mac_greek',
   '/usr/lib/python2.7/encodings/mac_greek.py',
   'PYMODULE'),
  ('encodings.shift_jis_2004',
   '/usr/lib/python2.7/encodings/shift_jis_2004.py',
   'PYMODULE'),
  ('encodings.gbk', '/usr/lib/python2.7/encodings/gbk.py', 'PYMODULE'),
  ('encodings.mac_iceland',
   '/usr/lib/python2.7/encodings/mac_iceland.py',
   'PYMODULE'),
  ('encodings.cp858', '/usr/lib/python2.7/encodings/cp858.py', 'PYMODULE'),
  ('encodings.cp850', '/usr/lib/python2.7/encodings/cp850.py', 'PYMODULE'),
  ('encodings.cp852', '/usr/lib/python2.7/encodings/cp852.py', 'PYMODULE'),
  ('encodings.cp855', '/usr/lib/python2.7/encodings/cp855.py', 'PYMODULE'),
  ('encodings.cp856', '/usr/lib/python2.7/encodings/cp856.py', 'PYMODULE'),
  ('encodings.cp857', '/usr/lib/python2.7/encodings/cp857.py', 'PYMODULE'),
  ('encodings.iso8859_4',
   '/usr/lib/python2.7/encodings/iso8859_4.py',
   'PYMODULE'),
  ('encodings.iso8859_5',
   '/usr/lib/python2.7/encodings/iso8859_5.py',
   'PYMODULE'),
  ('encodings.iso8859_6',
   '/usr/lib/python2.7/encodings/iso8859_6.py',
   'PYMODULE'),
  ('encodings.iso8859_7',
   '/usr/lib/python2.7/encodings/iso8859_7.py',
   'PYMODULE'),
  ('encodings.iso8859_1',
   '/usr/lib/python2.7/encodings/iso8859_1.py',
   'PYMODULE'),
  ('encodings.iso8859_2',
   '/usr/lib/python2.7/encodings/iso8859_2.py',
   'PYMODULE'),
  ('encodings.iso8859_3',
   '/usr/lib/python2.7/encodings/iso8859_3.py',
   'PYMODULE'),
  ('encodings.gb2312', '/usr/lib/python2.7/encodings/gb2312.py', 'PYMODULE'),
  ('encodings.iso8859_8',
   '/usr/lib/python2.7/encodings/iso8859_8.py',
   'PYMODULE'),
  ('encodings.iso8859_9',
   '/usr/lib/python2.7/encodings/iso8859_9.py',
   'PYMODULE'),
  ('encodings.cp949', '/usr/lib/python2.7/encodings/cp949.py', 'PYMODULE'),
  ('encodings.cp864', '/usr/lib/python2.7/encodings/cp864.py', 'PYMODULE'),
  ('encodings.base64_codec',
   '/usr/lib/python2.7/encodings/base64_codec.py',
   'PYMODULE'),
  ('base64', '/usr/lib/python2.7/base64.py', 'PYMODULE'),
  ('string', '/usr/lib/python2.7/string.py', 'PYMODULE'),
  ('struct', '/usr/lib/python2.7/struct.py', 'PYMODULE'),
  ('re', '/usr/lib/python2.7/re.py', 'PYMODULE'),
  ('sre_constants', '/usr/lib/python2.7/sre_constants.py', 'PYMODULE'),
  ('sre', '/usr/lib/python2.7/sre.py', 'PYMODULE'),
  ('warnings', '/usr/lib/python2.7/warnings.py', 'PYMODULE'),
  ('linecache', '/usr/lib/python2.7/linecache.py', 'PYMODULE'),
  ('copy', '/usr/lib/python2.7/copy.py', 'PYMODULE'),
  ('repr', '/usr/lib/python2.7/repr.py', 'PYMODULE'),
  ('weakref', '/usr/lib/python2.7/weakref.py', 'PYMODULE'),
  ('_weakrefset', '/usr/lib/python2.7/_weakrefset.py', 'PYMODULE'),
  ('UserDict', '/usr/lib/python2.7/UserDict.py', 'PYMODULE'),
  ('_abcoll', '/usr/lib/python2.7/_abcoll.py', 'PYMODULE'),
  ('abc', '/usr/lib/python2.7/abc.py', 'PYMODULE'),
  ('sre_parse', '/usr/lib/python2.7/sre_parse.py', 'PYMODULE'),
  ('sre_compile', '/usr/lib/python2.7/sre_compile.py', 'PYMODULE'),
  ('encodings.cp037', '/usr/lib/python2.7/encodings/cp037.py', 'PYMODULE'),
  ('encodings.utf_8', '/usr/lib/python2.7/encodings/utf_8.py', 'PYMODULE'),
  ('encodings.mac_arabic',
   '/usr/lib/python2.7/encodings/mac_arabic.py',
   'PYMODULE'),
  ('encodings.euc_kr', '/usr/lib/python2.7/encodings/euc_kr.py', 'PYMODULE'),
  ('encodings.utf_7', '/usr/lib/python2.7/encodings/utf_7.py', 'PYMODULE'),
  ('encodings.shift_jis',
   '/usr/lib/python2.7/encodings/shift_jis.py',
   'PYMODULE'),
  ('encodings.utf_32_le',
   '/usr/lib/python2.7/encodings/utf_32_le.py',
   'PYMODULE'),
  ('encodings.euc_jis_2004',
   '/usr/lib/python2.7/encodings/euc_jis_2004.py',
   'PYMODULE'),
  ('encodings.cp775', '/usr/lib/python2.7/encodings/cp775.py', 'PYMODULE'),
  ('encodings.cp1140', '/usr/lib/python2.7/encodings/cp1140.py', 'PYMODULE'),
  ('encodings.big5', '/usr/lib/python2.7/encodings/big5.py', 'PYMODULE'),
  ('encodings.iso8859_15',
   '/usr/lib/python2.7/encodings/iso8859_15.py',
   'PYMODULE'),
  ('encodings.iso2022_jp_ext',
   '/usr/lib/python2.7/encodings/iso2022_jp_ext.py',
   'PYMODULE'),
  ('encodings.johab', '/usr/lib/python2.7/encodings/johab.py', 'PYMODULE'),
  ('encodings.cp932', '/usr/lib/python2.7/encodings/cp932.py', 'PYMODULE'),
  ('encodings.idna', '/usr/lib/python2.7/encodings/idna.py', 'PYMODULE'),
  ('stringprep', '/usr/lib/python2.7/stringprep.py', 'PYMODULE'),
  ('codecs', '/usr/lib/python2.7/codecs.py', 'PYMODULE'),
  ('scp',
   '/home/local/ZOHOCORP/somes-8229/.local/lib/python2.7/site-packages/scp.py',
   'PYMODULE'),
  ('socket', '/usr/lib/python2.7/socket.py', 'PYMODULE'),
  ('ssl', '/usr/lib/python2.7/ssl.py', 'PYMODULE'),
  ('calendar', '/usr/lib/python2.7/calendar.py', 'PYMODULE'),
  ('optparse', '/usr/lib/python2.7/optparse.py', 'PYMODULE'),
  ('gettext', '/usr/lib/python2.7/gettext.py', 'PYMODULE'),
  ('_strptime', '/usr/lib/python2.7/_strptime.py', 'PYMODULE'),
  ('dummy_thread', '/usr/lib/python2.7/dummy_thread.py', 'PYMODULE'),
  ('traceback', '/usr/lib/python2.7/traceback.py', 'PYMODULE'),
  ('contextlib', '/usr/lib/python2.7/contextlib.py', 'PYMODULE'),
  ('collections', '/usr/lib/python2.7/collections.py', 'PYMODULE'),
  ('doctest', '/usr/lib/python2.7/doctest.py', 'PYMODULE'),
  ('tempfile', '/usr/lib/python2.7/tempfile.py', 'PYMODULE'),
  ('random', '/usr/lib/python2.7/random.py', 'PYMODULE'),
  ('hashlib', '/usr/lib/python2.7/hashlib.py', 'PYMODULE'),
  ('logging', '/usr/lib/python2.7/logging/__init__.py', 'PYMODULE'),
  ('atexit', '/usr/lib/python2.7/atexit.py', 'PYMODULE'),
  ('threading', '/usr/lib/python2.7/threading.py', 'PYMODULE'),
  ('_threading_local', '/usr/lib/python2.7/_threading_local.py', 'PYMODULE'),
  ('io', '/usr/lib/python2.7/io.py', 'PYMODULE'),
  ('pdb', '/usr/lib/python2.7/pdb.py', 'PYMODULE'),
  ('shlex', '/usr/lib/python2.7/shlex.py', 'PYMODULE'),
  ('posixpath', '/usr/lib/python2.7/posixpath.py', 'PYMODULE'),
  ('genericpath', '/usr/lib/python2.7/genericpath.py', 'PYMODULE'),
  ('stat', '/usr/lib/python2.7/stat.py', 'PYMODULE'),
  ('pprint', '/usr/lib/python2.7/pprint.py', 'PYMODULE'),
  ('bdb', '/usr/lib/python2.7/bdb.py', 'PYMODULE'),
  ('fnmatch', '/usr/lib/python2.7/fnmatch.py', 'PYMODULE'),
  ('cmd', '/usr/lib/python2.7/cmd.py', 'PYMODULE'),
  ('difflib', '/usr/lib/python2.7/difflib.py', 'PYMODULE'),
  ('unittest', '/usr/lib/python2.7/unittest/__init__.py', 'PYMODULE'),
  ('unittest.signals', '/usr/lib/python2.7/unittest/signals.py', 'PYMODULE'),
  ('unittest.main', '/usr/lib/python2.7/unittest/main.py', 'PYMODULE'),
  ('unittest.runner', '/usr/lib/python2.7/unittest/runner.py', 'PYMODULE'),
  ('unittest.loader', '/usr/lib/python2.7/unittest/loader.py', 'PYMODULE'),
  ('unittest.suite', '/usr/lib/python2.7/unittest/suite.py', 'PYMODULE'),
  ('unittest.case', '/usr/lib/python2.7/unittest/case.py', 'PYMODULE'),
  ('unittest.result', '/usr/lib/python2.7/unittest/result.py', 'PYMODULE'),
  ('unittest.util', '/usr/lib/python2.7/unittest/util.py', 'PYMODULE'),
  ('inspect', '/usr/lib/python2.7/inspect.py', 'PYMODULE'),
  ('tokenize', '/usr/lib/python2.7/tokenize.py', 'PYMODULE'),
  ('token', '/usr/lib/python2.7/token.py', 'PYMODULE'),
  ('dis', '/usr/lib/python2.7/dis.py', 'PYMODULE'),
  ('opcode', '/usr/lib/python2.7/opcode.py', 'PYMODULE'),
  ('__future__', '/usr/lib/python2.7/__future__.py', 'PYMODULE'),
  ('heapq', '/usr/lib/python2.7/heapq.py', 'PYMODULE'),
  ('keyword', '/usr/lib/python2.7/keyword.py', 'PYMODULE'),
  ('textwrap', '/usr/lib/python2.7/textwrap.py', 'PYMODULE'),
  ('functools', '/usr/lib/python2.7/functools.py', 'PYMODULE'),
  ('locale', '/usr/lib/python2.7/locale.py', 'PYMODULE'),
  ('paramiko',
   '/home/local/ZOHOCORP/somes-8229/.local/lib/python2.7/site-packages/paramiko/__init__.py',
   'PYMODULE'),
  ('paramiko.common',
   '/home/local/ZOHOCORP/somes-8229/.local/lib/python2.7/site-packages/paramiko/common.py',
   'PYMODULE'),
  ('paramiko.py3compat',
   '/home/local/ZOHOCORP/somes-8229/.local/lib/python2.7/site-packages/paramiko/py3compat.py',
   'PYMODULE'),
  ('builtins',
   '/home/local/ZOHOCORP/somes-8229/.local/lib/python2.7/site-packages/builtins/__init__.py',
   'PYMODULE'),
  ('future.builtins',
   '/home/local/ZOHOCORP/somes-8229/.local/lib/python2.7/site-packages/future/builtins/__init__.py',
   'PYMODULE'),
  ('future.types.newstr',
   '/home/local/ZOHOCORP/somes-8229/.local/lib/python2.7/site-packages/future/types/newstr.py',
   'PYMODULE'),
  ('numbers', '/usr/lib/python2.7/numbers.py', 'PYMODULE'),
  ('future.types.newrange',
   '/home/local/ZOHOCORP/somes-8229/.local/lib/python2.7/site-packages/future/types/newrange.py',
   'PYMODULE'),
  ('future.backports.misc',
   '/home/local/ZOHOCORP/somes-8229/.local/lib/python2.7/site-packages/future/backports/misc.py',
   'PYMODULE'),
  ('future.backports',
   '/home/local/ZOHOCORP/somes-8229/.local/lib/python2.7/site-packages/future/backports/__init__.py',
   'PYMODULE'),
  ('future.standard_library',
   '/home/local/ZOHOCORP/somes-8229/.local/lib/python2.7/site-packages/future/standard_library/__init__.py',
   'PYMODULE'),
  ('importlib', '/usr/lib/python2.7/importlib/__init__.py', 'PYMODULE'),
  ('pickle', '/usr/lib/python2.7/pickle.py', 'PYMODULE'),
  ('email', '/usr/lib/python2.7/email/__init__.py', 'PYMODULE'),
  ('email.mime', '/usr/lib/python2.7/email/mime/__init__.py', 'PYMODULE'),
  ('email.parser', '/usr/lib/python2.7/email/parser.py', 'PYMODULE'),
  ('email.feedparser', '/usr/lib/python2.7/email/feedparser.py', 'PYMODULE'),
  ('email.message', '/usr/lib/python2.7/email/message.py', 'PYMODULE'),
  ('email.iterators', '/usr/lib/python2.7/email/iterators.py', 'PYMODULE'),
  ('email.generator', '/usr/lib/python2.7/email/generator.py', 'PYMODULE'),
  ('email.header', '/usr/lib/python2.7/email/header.py', 'PYMODULE'),
  ('email.base64mime', '/usr/lib/python2.7/email/base64mime.py', 'PYMODULE'),
  ('email.quoprimime', '/usr/lib/python2.7/email/quoprimime.py', 'PYMODULE'),
  ('email.utils', '/usr/lib/python2.7/email/utils.py', 'PYMODULE'),
  ('email.encoders', '/usr/lib/python2.7/email/encoders.py', 'PYMODULE'),
  ('email._parseaddr', '/usr/lib/python2.7/email/_parseaddr.py', 'PYMODULE'),
  ('email.charset', '/usr/lib/python2.7/email/charset.py', 'PYMODULE'),
  ('uu', '/usr/lib/python2.7/uu.py', 'PYMODULE'),
  ('email.errors', '/usr/lib/python2.7/email/errors.py', 'PYMODULE'),
  ('future.moves.dbm.ndbm',
   '/home/local/ZOHOCORP/somes-8229/.local/lib/python2.7/site-packages/future/moves/dbm/ndbm.py',
   'PYMODULE'),
  ('future.moves.dbm.gnu',
   '/home/local/ZOHOCORP/somes-8229/.local/lib/python2.7/site-packages/future/moves/dbm/gnu.py',
   'PYMODULE'),
  ('future.moves.dbm.dumb',
   '/home/local/ZOHOCORP/somes-8229/.local/lib/python2.7/site-packages/future/moves/dbm/dumb.py',
   'PYMODULE'),
  ('dumbdbm', '/usr/lib/python2.7/dumbdbm.py', 'PYMODULE'),
  ('ast', '/usr/lib/python2.7/ast.py', 'PYMODULE'),
  ('future.moves.dbm',
   '/home/local/ZOHOCORP/somes-8229/.local/lib/python2.7/site-packages/future/moves/dbm/__init__.py',
   'PYMODULE'),
  ('future.moves',
   '/home/local/ZOHOCORP/somes-8229/.local/lib/python2.7/site-packages/future/moves/__init__.py',
   'PYMODULE'),
  ('anydbm', '/usr/lib/python2.7/anydbm.py', 'PYMODULE'),
  ('dbhash', '/usr/lib/python2.7/dbhash.py', 'PYMODULE'),
  ('bsddb', '/usr/lib/python2.7/bsddb/__init__.py', 'PYMODULE'),
  ('bsddb.dbutils', '/usr/lib/python2.7/bsddb/dbutils.py', 'PYMODULE'),
  ('bsddb.db', '/usr/lib/python2.7/bsddb/db.py', 'PYMODULE'),
  ('whichdb', '/usr/lib/python2.7/whichdb.py', 'PYMODULE'),
  ('future.moves.test.support',
   '/home/local/ZOHOCORP/somes-8229/.local/lib/python2.7/site-packages/future/moves/test/support.py',
   'PYMODULE'),
  ('test.test_support',
   '/usr/lib/python2.7/test/test_support.py',
   'PYMODULE'),
  ('test.support', '/usr/lib/python2.7/test/support/__init__.py', 'PYMODULE'),
  ('urllib2', '/usr/lib/python2.7/urllib2.py', 'PYMODULE'),
  ('ftplib', '/usr/lib/python2.7/ftplib.py', 'PYMODULE'),
  ('mimetypes', '/usr/lib/python2.7/mimetypes.py', 'PYMODULE'),
  ('cookielib', '/usr/lib/python2.7/cookielib.py', 'PYMODULE'),
  ('_MozillaCookieJar',
   '/usr/lib/python2.7/_MozillaCookieJar.py',
   'PYMODULE'),
  ('_LWPCookieJar', '/usr/lib/python2.7/_LWPCookieJar.py', 'PYMODULE'),
  ('dummy_threading', '/usr/lib/python2.7/dummy_threading.py', 'PYMODULE'),
  ('bisect', '/usr/lib/python2.7/bisect.py', 'PYMODULE'),
  ('mimetools', '/usr/lib/python2.7/mimetools.py', 'PYMODULE'),
  ('rfc822', '/usr/lib/python2.7/rfc822.py', 'PYMODULE'),
  ('httplib', '/usr/lib/python2.7/httplib.py', 'PYMODULE'),
  ('urlparse', '/usr/lib/python2.7/urlparse.py', 'PYMODULE'),
  ('Tkinter', '/usr/lib/python2.7/lib-tk/Tkinter.py', 'PYMODULE'),
  ('Tkconstants', '/usr/lib/python2.7/lib-tk/Tkconstants.py', 'PYMODULE'),
  ('FixTk', '/usr/lib/python2.7/lib-tk/FixTk.py', 'PYMODULE'),
  ('ctypes.util', '/usr/lib/python2.7/ctypes/util.py', 'PYMODULE'),
  ('ctypes.wintypes', '/usr/lib/python2.7/ctypes/wintypes.py', 'PYMODULE'),
  ('ctypes', '/usr/lib/python2.7/ctypes/__init__.py', 'PYMODULE'),
  ('ctypes._endian', '/usr/lib/python2.7/ctypes/_endian.py', 'PYMODULE'),
  ('sysconfig', '/usr/lib/python2.7/sysconfig.py', 'PYMODULE'),
  ('_osx_support', '/usr/lib/python2.7/_osx_support.py', 'PYMODULE'),
  ('distutils.log', '/usr/lib/python2.7/distutils/log.py', 'PYMODULE'),
  ('distutils', '/usr/lib/python2.7/distutils/__init__.py', 'PYMODULE'),
  ('_sysconfigdata', '/usr/lib/python2.7/_sysconfigdata.py', 'PYMODULE'),
  ('_sysconfigdata_nd',
   '/usr/lib/python2.7/plat-x86_64-linux-gnu/_sysconfigdata_nd.py',
   'PYMODULE'),
  ('shutil', '/usr/lib/python2.7/shutil.py', 'PYMODULE'),
  ('zipfile', '/usr/lib/python2.7/zipfile.py', 'PYMODULE'),
  ('py_compile', '/usr/lib/python2.7/py_compile.py', 'PYMODULE'),
  ('tarfile', '/usr/lib/python2.7/tarfile.py', 'PYMODULE'),
  ('gzip', '/usr/lib/python2.7/gzip.py', 'PYMODULE'),
  ('platform', '/usr/lib/python2.7/platform.py', 'PYMODULE'),
  ('plistlib', '/usr/lib/python2.7/plistlib.py', 'PYMODULE'),
  ('xml.parsers.expat',
   '/usr/lib/python2.7/xml/parsers/expat.py',
   'PYMODULE'),
  ('xml.parsers', '/usr/lib/python2.7/xml/parsers/__init__.py', 'PYMODULE'),
  ('xml', '/usr/lib/python2.7/xml/__init__.py', 'PYMODULE'),
  ('xml.sax.expatreader',
   '/usr/lib/python2.7/xml/sax/expatreader.py',
   'PYMODULE'),
  ('xml.sax.saxutils', '/usr/lib/python2.7/xml/sax/saxutils.py', 'PYMODULE'),
  ('xml.sax', '/usr/lib/python2.7/xml/sax/__init__.py', 'PYMODULE'),
  ('xml.sax.handler', '/usr/lib/python2.7/xml/sax/handler.py', 'PYMODULE'),
  ('xml.sax._exceptions',
   '/usr/lib/python2.7/xml/sax/_exceptions.py',
   'PYMODULE'),
  ('xml.sax.xmlreader',
   '/usr/lib/python2.7/xml/sax/xmlreader.py',
   'PYMODULE'),
  ('winreg',
   '/home/local/ZOHOCORP/somes-8229/.local/lib/python2.7/site-packages/winreg/__init__.py',
   'PYMODULE'),
  ('future.moves.test',
   '/home/local/ZOHOCORP/somes-8229/.local/lib/python2.7/site-packages/future/moves/test/__init__.py',
   'PYMODULE'),
  ('test', '/usr/lib/python2.7/test/__init__.py', 'PYMODULE'),
  ('future.backports.urllib.robotparser',
   '/home/local/ZOHOCORP/somes-8229/.local/lib/python2.7/site-packages/future/backports/urllib/robotparser.py',
   'PYMODULE'),
  ('future.backports.urllib.error',
   '/home/local/ZOHOCORP/somes-8229/.local/lib/python2.7/site-packages/future/backports/urllib/error.py',
   'PYMODULE'),
  ('future.backports.urllib.parse',
   '/home/local/ZOHOCORP/somes-8229/.local/lib/python2.7/site-packages/future/backports/urllib/parse.py',
   'PYMODULE'),
  ('future.backports.urllib.response',
   '/home/local/ZOHOCORP/somes-8229/.local/lib/python2.7/site-packages/future/backports/urllib/response.py',
   'PYMODULE'),
  ('future.backports.urllib.request',
   '/home/local/ZOHOCORP/somes-8229/.local/lib/python2.7/site-packages/future/backports/urllib/request.py',
   'PYMODULE'),
  ('getpass', '/usr/lib/python2.7/getpass.py', 'PYMODULE'),
  ('nturl2path', '/usr/lib/python2.7/nturl2path.py', 'PYMODULE'),
  ('future.backports.email.utils',
   '/home/local/ZOHOCORP/somes-8229/.local/lib/python2.7/site-packages/future/backports/email/utils.py',
   'PYMODULE'),
  ('future.backports.email.charset',
   '/home/local/ZOHOCORP/somes-8229/.local/lib/python2.7/site-packages/future/backports/email/charset.py',
   'PYMODULE'),
  ('future.backports.email.errors',
   '/home/local/ZOHOCORP/somes-8229/.local/lib/python2.7/site-packages/future/backports/email/errors.py',
   'PYMODULE'),
  ('future.backports.email.encoders',
   '/home/local/ZOHOCORP/somes-8229/.local/lib/python2.7/site-packages/future/backports/email/encoders.py',
   'PYMODULE'),
  ('future.backports.email._parseaddr',
   '/home/local/ZOHOCORP/somes-8229/.local/lib/python2.7/site-packages/future/backports/email/_parseaddr.py',
   'PYMODULE'),
  ('future.backports.http.cookiejar',
   '/home/local/ZOHOCORP/somes-8229/.local/lib/python2.7/site-packages/future/backports/http/cookiejar.py',
   'PYMODULE'),
  ('future.backports.http.client',
   '/home/local/ZOHOCORP/somes-8229/.local/lib/python2.7/site-packages/future/backports/http/client.py',
   'PYMODULE'),
  ('future.backports.email.message',
   '/home/local/ZOHOCORP/somes-8229/.local/lib/python2.7/site-packages/future/backports/email/message.py',
   'PYMODULE'),
  ('future.backports.email.iterators',
   '/home/local/ZOHOCORP/somes-8229/.local/lib/python2.7/site-packages/future/backports/email/iterators.py',
   'PYMODULE'),
  ('future.backports.email.generator',
   '/home/local/ZOHOCORP/somes-8229/.local/lib/python2.7/site-packages/future/backports/email/generator.py',
   'PYMODULE'),
  ('future.backports.email.header',
   '/home/local/ZOHOCORP/somes-8229/.local/lib/python2.7/site-packages/future/backports/email/header.py',
   'PYMODULE'),
  ('future.backports.email.quoprimime',
   '/home/local/ZOHOCORP/somes-8229/.local/lib/python2.7/site-packages/future/backports/email/quoprimime.py',
   'PYMODULE'),
  ('future.backports.email.base64mime',
   '/home/local/ZOHOCORP/somes-8229/.local/lib/python2.7/site-packages/future/backports/email/base64mime.py',
   'PYMODULE'),
  ('future.backports.email._encoded_words',
   '/home/local/ZOHOCORP/somes-8229/.local/lib/python2.7/site-packages/future/backports/email/_encoded_words.py',
   'PYMODULE'),
  ('future.backports.email._policybase',
   '/home/local/ZOHOCORP/somes-8229/.local/lib/python2.7/site-packages/future/backports/email/_policybase.py',
   'PYMODULE'),
  ('future.backports.email.parser',
   '/home/local/ZOHOCORP/somes-8229/.local/lib/python2.7/site-packages/future/backports/email/parser.py',
   'PYMODULE'),
  ('future.backports.email.feedparser',
   '/home/local/ZOHOCORP/somes-8229/.local/lib/python2.7/site-packages/future/backports/email/feedparser.py',
   'PYMODULE'),
  ('future.backports.http',
   '/home/local/ZOHOCORP/somes-8229/.local/lib/python2.7/site-packages/future/backports/http/__init__.py',
   'PYMODULE'),
  ('future.backports.urllib',
   '/home/local/ZOHOCORP/somes-8229/.local/lib/python2.7/site-packages/future/backports/urllib/__init__.py',
   'PYMODULE'),
  ('urllib', '/usr/lib/python2.7/urllib.py', 'PYMODULE'),
  ('future.backports.email',
   '/home/local/ZOHOCORP/somes-8229/.local/lib/python2.7/site-packages/future/backports/email/__init__.py',
   'PYMODULE'),
  ('future.utils.surrogateescape',
   '/home/local/ZOHOCORP/somes-8229/.local/lib/python2.7/site-packages/future/utils/surrogateescape.py',
   'PYMODULE'),
  ('future.backports.datetime',
   '/home/local/ZOHOCORP/somes-8229/.local/lib/python2.7/site-packages/future/backports/datetime.py',
   'PYMODULE'),
  ('reprlib',
   '/home/local/ZOHOCORP/somes-8229/.local/lib/python2.7/site-packages/reprlib/__init__.py',
   'PYMODULE'),
  ('_dummy_thread',
   '/home/local/ZOHOCORP/somes-8229/.local/lib/python2.7/site-packages/_dummy_thread/__init__.py',
   'PYMODULE'),
  ('_thread',
   '/home/local/ZOHOCORP/somes-8229/.local/lib/python2.7/site-packages/_thread/__init__.py',
   'PYMODULE'),
  ('subprocess', '/usr/lib/python2.7/subprocess.py', 'PYMODULE'),
  ('future.types.newobject',
   '/home/local/ZOHOCORP/somes-8229/.local/lib/python2.7/site-packages/future/types/newobject.py',
   'PYMODULE'),
  ('future.types.newlist',
   '/home/local/ZOHOCORP/somes-8229/.local/lib/python2.7/site-packages/future/types/newlist.py',
   'PYMODULE'),
  ('future.types.newint',
   '/home/local/ZOHOCORP/somes-8229/.local/lib/python2.7/site-packages/future/types/newint.py',
   'PYMODULE'),
  ('future.types.newdict',
   '/home/local/ZOHOCORP/somes-8229/.local/lib/python2.7/site-packages/future/types/newdict.py',
   'PYMODULE'),
  ('future.types.newbytes',
   '/home/local/ZOHOCORP/somes-8229/.local/lib/python2.7/site-packages/future/types/newbytes.py',
   'PYMODULE'),
  ('future.types',
   '/home/local/ZOHOCORP/somes-8229/.local/lib/python2.7/site-packages/future/types/__init__.py',
   'PYMODULE'),
  ('future.utils',
   '/home/local/ZOHOCORP/somes-8229/.local/lib/python2.7/site-packages/future/utils/__init__.py',
   'PYMODULE'),
  ('future.builtins.misc',
   '/home/local/ZOHOCORP/somes-8229/.local/lib/python2.7/site-packages/future/builtins/misc.py',
   'PYMODULE'),
  ('future.builtins.newsuper',
   '/home/local/ZOHOCORP/somes-8229/.local/lib/python2.7/site-packages/future/builtins/newsuper.py',
   'PYMODULE'),
  ('future.builtins.newround',
   '/home/local/ZOHOCORP/somes-8229/.local/lib/python2.7/site-packages/future/builtins/newround.py',
   'PYMODULE'),
  ('decimal', '/usr/lib/python2.7/decimal.py', 'PYMODULE'),
  ('future.builtins.newnext',
   '/home/local/ZOHOCORP/somes-8229/.local/lib/python2.7/site-packages/future/builtins/newnext.py',
   'PYMODULE'),
  ('future.builtins.iterators',
   '/home/local/ZOHOCORP/somes-8229/.local/lib/python2.7/site-packages/future/builtins/iterators.py',
   'PYMODULE'),
  ('future',
   '/home/local/ZOHOCORP/somes-8229/.local/lib/python2.7/site-packages/future/__init__.py',
   'PYMODULE'),
  ('paramiko.proxy',
   '/home/local/ZOHOCORP/somes-8229/.local/lib/python2.7/site-packages/paramiko/proxy.py',
   'PYMODULE'),
  ('paramiko.config',
   '/home/local/ZOHOCORP/somes-8229/.local/lib/python2.7/site-packages/paramiko/config.py',
   'PYMODULE'),
  ('paramiko.hostkeys',
   '/home/local/ZOHOCORP/somes-8229/.local/lib/python2.7/site-packages/paramiko/hostkeys.py',
   'PYMODULE'),
  ('hmac', '/usr/lib/python2.7/hmac.py', 'PYMODULE'),
  ('paramiko.pkey',
   '/home/local/ZOHOCORP/somes-8229/.local/lib/python2.7/site-packages/paramiko/pkey.py',
   'PYMODULE'),
  ('cryptography.hazmat.primitives.ciphers.modes',
   '/home/local/ZOHOCORP/somes-8229/.local/lib/python2.7/site-packages/cryptography/hazmat/primitives/ciphers/modes.py',
   'PYMODULE'),
  ('cryptography.utils',
   '/home/local/ZOHOCORP/somes-8229/.local/lib/python2.7/site-packages/cryptography/utils.py',
   'PYMODULE'),
  ('cryptography',
   '/home/local/ZOHOCORP/somes-8229/.local/lib/python2.7/site-packages/cryptography/__init__.py',
   'PYMODULE'),
  ('cryptography.hazmat.bindings.openssl._conditional',
   '/home/local/ZOHOCORP/somes-8229/.local/lib/python2.7/site-packages/cryptography/hazmat/bindings/openssl/_conditional.py',
   'PYMODULE'),
  ('cryptography.hazmat.bindings.openssl.binding',
   '/home/local/ZOHOCORP/somes-8229/.local/lib/python2.7/site-packages/cryptography/hazmat/bindings/openssl/binding.py',
   'PYMODULE'),
  ('cryptography.hazmat.bindings',
   '/home/local/ZOHOCORP/somes-8229/.local/lib/python2.7/site-packages/cryptography/hazmat/bindings/__init__.py',
   'PYMODULE'),
  ('cryptography.hazmat',
   '/home/local/ZOHOCORP/somes-8229/.local/lib/python2.7/site-packages/cryptography/hazmat/__init__.py',
   'PYMODULE'),
  ('cryptography.exceptions',
   '/home/local/ZOHOCORP/somes-8229/.local/lib/python2.7/site-packages/cryptography/exceptions.py',
   'PYMODULE'),
  ('enum',
   '/home/local/ZOHOCORP/somes-8229/.local/lib/python2.7/site-packages/enum/__init__.py',
   'PYMODULE'),
  ('cryptography.hazmat.bindings.openssl',
   '/home/local/ZOHOCORP/somes-8229/.local/lib/python2.7/site-packages/cryptography/hazmat/bindings/openssl/__init__.py',
   'PYMODULE'),
  ('cryptography.hazmat.backends.openssl.backend',
   '/home/local/ZOHOCORP/somes-8229/.local/lib/python2.7/site-packages/cryptography/hazmat/backends/openssl/backend.py',
   'PYMODULE'),
  ('cryptography.x509.ocsp',
   '/home/local/ZOHOCORP/somes-8229/.local/lib/python2.7/site-packages/cryptography/x509/ocsp.py',
   'PYMODULE'),
  ('cryptography.x509.base',
   '/home/local/ZOHOCORP/somes-8229/.local/lib/python2.7/site-packages/cryptography/x509/base.py',
   'PYMODULE'),
  ('cryptography.x509.name',
   '/home/local/ZOHOCORP/somes-8229/.local/lib/python2.7/site-packages/cryptography/x509/name.py',
   'PYMODULE'),
  ('cryptography.x509.oid',
   '/home/local/ZOHOCORP/somes-8229/.local/lib/python2.7/site-packages/cryptography/x509/oid.py',
   'PYMODULE'),
  ('cryptography.hazmat._oid',
   '/home/local/ZOHOCORP/somes-8229/.local/lib/python2.7/site-packages/cryptography/hazmat/_oid.py',
   'PYMODULE'),
  ('cryptography.x509.extensions',
   '/home/local/ZOHOCORP/somes-8229/.local/lib/python2.7/site-packages/cryptography/x509/extensions.py',
   'PYMODULE'),
  ('cryptography.x509.general_name',
   '/home/local/ZOHOCORP/somes-8229/.local/lib/python2.7/site-packages/cryptography/x509/general_name.py',
   'PYMODULE'),
  ('idna',
   '/home/local/ZOHOCORP/somes-8229/.local/lib/python2.7/site-packages/idna/__init__.py',
   'PYMODULE'),
  ('idna.core',
   '/home/local/ZOHOCORP/somes-8229/.local/lib/python2.7/site-packages/idna/core.py',
   'PYMODULE'),
  ('idna.uts46data',
   '/home/local/ZOHOCORP/somes-8229/.local/lib/python2.7/site-packages/idna/uts46data.py',
   'PYMODULE'),
  ('idna.intranges',
   '/home/local/ZOHOCORP/somes-8229/.local/lib/python2.7/site-packages/idna/intranges.py',
   'PYMODULE'),
  ('idna.idnadata',
   '/home/local/ZOHOCORP/somes-8229/.local/lib/python2.7/site-packages/idna/idnadata.py',
   'PYMODULE'),
  ('idna.package_data',
   '/home/local/ZOHOCORP/somes-8229/.local/lib/python2.7/site-packages/idna/package_data.py',
   'PYMODULE'),
  ('cryptography.x509.certificate_transparency',
   '/home/local/ZOHOCORP/somes-8229/.local/lib/python2.7/site-packages/cryptography/x509/certificate_transparency.py',
   'PYMODULE'),
  ('cryptography.hazmat.primitives.constant_time',
   '/home/local/ZOHOCORP/somes-8229/.local/lib/python2.7/site-packages/cryptography/hazmat/primitives/constant_time.py',
   'PYMODULE'),
  ('asn1crypto.keys',
   '/home/local/ZOHOCORP/somes-8229/.local/lib/python2.7/site-packages/asn1crypto/keys.py',
   'PYMODULE'),
  ('asn1crypto',
   '/home/local/ZOHOCORP/somes-8229/.local/lib/python2.7/site-packages/asn1crypto/__init__.py',
   'PYMODULE'),
  ('asn1crypto._teletex_codec',
   '/home/local/ZOHOCORP/somes-8229/.local/lib/python2.7/site-packages/asn1crypto/_teletex_codec.py',
   'PYMODULE'),
  ('asn1crypto.version',
   '/home/local/ZOHOCORP/somes-8229/.local/lib/python2.7/site-packages/asn1crypto/version.py',
   'PYMODULE'),
  ('asn1crypto.util',
   '/home/local/ZOHOCORP/somes-8229/.local/lib/python2.7/site-packages/asn1crypto/util.py',
   'PYMODULE'),
  ('asn1crypto._inet',
   '/home/local/ZOHOCORP/somes-8229/.local/lib/python2.7/site-packages/asn1crypto/_inet.py',
   'PYMODULE'),
  ('asn1crypto._ordereddict',
   '/home/local/ZOHOCORP/somes-8229/.local/lib/python2.7/site-packages/asn1crypto/_ordereddict.py',
   'PYMODULE'),
  ('asn1crypto._iri',
   '/home/local/ZOHOCORP/somes-8229/.local/lib/python2.7/site-packages/asn1crypto/_iri.py',
   'PYMODULE'),
  ('asn1crypto.algos',
   '/home/local/ZOHOCORP/somes-8229/.local/lib/python2.7/site-packages/asn1crypto/algos.py',
   'PYMODULE'),
  ('asn1crypto._int',
   '/home/local/ZOHOCORP/somes-8229/.local/lib/python2.7/site-packages/asn1crypto/_int.py',
   'PYMODULE'),
  ('asn1crypto._perf._big_num_ctypes',
   '/home/local/ZOHOCORP/somes-8229/.local/lib/python2.7/site-packages/asn1crypto/_perf/_big_num_ctypes.py',
   'PYMODULE'),
  ('asn1crypto._perf',
   '/home/local/ZOHOCORP/somes-8229/.local/lib/python2.7/site-packages/asn1crypto/_perf/__init__.py',
   'PYMODULE'),
  ('asn1crypto._ffi',
   '/home/local/ZOHOCORP/somes-8229/.local/lib/python2.7/site-packages/asn1crypto/_ffi.py',
   'PYMODULE'),
  ('asn1crypto._types',
   '/home/local/ZOHOCORP/somes-8229/.local/lib/python2.7/site-packages/asn1crypto/_types.py',
   'PYMODULE'),
  ('asn1crypto._errors',
   '/home/local/ZOHOCORP/somes-8229/.local/lib/python2.7/site-packages/asn1crypto/_errors.py',
   'PYMODULE'),
  ('asn1crypto._elliptic_curve',
   '/home/local/ZOHOCORP/somes-8229/.local/lib/python2.7/site-packages/asn1crypto/_elliptic_curve.py',
   'PYMODULE'),
  ('ipaddress',
   '/home/local/ZOHOCORP/somes-8229/.local/lib/python2.7/site-packages/ipaddress.py',
   'PYMODULE'),
  ('cryptography.hazmat.primitives.serialization.ssh',
   '/home/local/ZOHOCORP/somes-8229/.local/lib/python2.7/site-packages/cryptography/hazmat/primitives/serialization/ssh.py',
   'PYMODULE'),
  ('cryptography.hazmat.primitives.kdf.scrypt',
   '/home/local/ZOHOCORP/somes-8229/.local/lib/python2.7/site-packages/cryptography/hazmat/primitives/kdf/scrypt.py',
   'PYMODULE'),
  ('cryptography.hazmat.primitives.kdf',
   '/home/local/ZOHOCORP/somes-8229/.local/lib/python2.7/site-packages/cryptography/hazmat/primitives/kdf/__init__.py',
   'PYMODULE'),
  ('cryptography.hazmat.primitives.asymmetric.padding',
   '/home/local/ZOHOCORP/somes-8229/.local/lib/python2.7/site-packages/cryptography/hazmat/primitives/asymmetric/padding.py',
   'PYMODULE'),
  ('cryptography.hazmat.primitives.asymmetric.rsa',
   '/home/local/ZOHOCORP/somes-8229/.local/lib/python2.7/site-packages/cryptography/hazmat/primitives/asymmetric/rsa.py',
   'PYMODULE'),
  ('fractions', '/usr/lib/python2.7/fractions.py', 'PYMODULE'),
  ('cryptography.hazmat.primitives.asymmetric.ed25519',
   '/home/local/ZOHOCORP/somes-8229/.local/lib/python2.7/site-packages/cryptography/hazmat/primitives/asymmetric/ed25519.py',
   'PYMODULE'),
  ('cryptography.hazmat.primitives.asymmetric.ec',
   '/home/local/ZOHOCORP/somes-8229/.local/lib/python2.7/site-packages/cryptography/hazmat/primitives/asymmetric/ec.py',
   'PYMODULE'),
  ('cryptography.hazmat.primitives.asymmetric.dsa',
   '/home/local/ZOHOCORP/somes-8229/.local/lib/python2.7/site-packages/cryptography/hazmat/primitives/asymmetric/dsa.py',
   'PYMODULE'),
  ('cryptography.hazmat.primitives.asymmetric',
   '/home/local/ZOHOCORP/somes-8229/.local/lib/python2.7/site-packages/cryptography/hazmat/primitives/asymmetric/__init__.py',
   'PYMODULE'),
  ('cryptography.hazmat.primitives.asymmetric.dh',
   '/home/local/ZOHOCORP/somes-8229/.local/lib/python2.7/site-packages/cryptography/hazmat/primitives/asymmetric/dh.py',
   'PYMODULE'),
  ('cryptography.hazmat.primitives.hashes',
   '/home/local/ZOHOCORP/somes-8229/.local/lib/python2.7/site-packages/cryptography/hazmat/primitives/hashes.py',
   'PYMODULE'),
  ('asn1crypto.core',
   '/home/local/ZOHOCORP/somes-8229/.local/lib/python2.7/site-packages/asn1crypto/core.py',
   'PYMODULE'),
  ('asn1crypto.parser',
   '/home/local/ZOHOCORP/somes-8229/.local/lib/python2.7/site-packages/asn1crypto/parser.py',
   'PYMODULE'),
  ('cryptography.hazmat.backends.openssl.cmac',
   '/home/local/ZOHOCORP/somes-8229/.local/lib/python2.7/site-packages/cryptography/hazmat/backends/openssl/cmac.py',
   'PYMODULE'),
  ('cryptography.hazmat.primitives.mac',
   '/home/local/ZOHOCORP/somes-8229/.local/lib/python2.7/site-packages/cryptography/hazmat/primitives/mac.py',
   'PYMODULE'),
  ('cryptography.hazmat.backends.openssl.ciphers',
   '/home/local/ZOHOCORP/somes-8229/.local/lib/python2.7/site-packages/cryptography/hazmat/backends/openssl/ciphers.py',
   'PYMODULE'),
  ('cryptography.hazmat.backends.openssl',
   '/home/local/ZOHOCORP/somes-8229/.local/lib/python2.7/site-packages/cryptography/hazmat/backends/openssl/__init__.py',
   'PYMODULE'),
  ('cryptography.hazmat.backends.openssl.x509',
   '/home/local/ZOHOCORP/somes-8229/.local/lib/python2.7/site-packages/cryptography/hazmat/backends/openssl/x509.py',
   'PYMODULE'),
  ('cryptography.hazmat.backends.openssl.dh',
   '/home/local/ZOHOCORP/somes-8229/.local/lib/python2.7/site-packages/cryptography/hazmat/backends/openssl/dh.py',
   'PYMODULE'),
  ('cryptography.hazmat.backends.openssl.aead',
   '/home/local/ZOHOCORP/somes-8229/.local/lib/python2.7/site-packages/cryptography/hazmat/backends/openssl/aead.py',
   'PYMODULE'),
  ('cryptography.hazmat.primitives.ciphers.aead',
   '/home/local/ZOHOCORP/somes-8229/.local/lib/python2.7/site-packages/cryptography/hazmat/primitives/ciphers/aead.py',
   'PYMODULE'),
  ('cryptography.hazmat.backends.openssl.ed448',
   '/home/local/ZOHOCORP/somes-8229/.local/lib/python2.7/site-packages/cryptography/hazmat/backends/openssl/ed448.py',
   'PYMODULE'),
  ('cryptography.hazmat.primitives.asymmetric.ed448',
   '/home/local/ZOHOCORP/somes-8229/.local/lib/python2.7/site-packages/cryptography/hazmat/primitives/asymmetric/ed448.py',
   'PYMODULE'),
  ('cryptography.hazmat.backends.interfaces',
   '/home/local/ZOHOCORP/somes-8229/.local/lib/python2.7/site-packages/cryptography/hazmat/backends/interfaces.py',
   'PYMODULE'),
  ('cryptography.hazmat.backends.openssl.decode_asn1',
   '/home/local/ZOHOCORP/somes-8229/.local/lib/python2.7/site-packages/cryptography/hazmat/backends/openssl/decode_asn1.py',
   'PYMODULE'),
  ('cryptography.hazmat.backends.openssl.x25519',
   '/home/local/ZOHOCORP/somes-8229/.local/lib/python2.7/site-packages/cryptography/hazmat/backends/openssl/x25519.py',
   'PYMODULE'),
  ('cryptography.hazmat.primitives.asymmetric.x25519',
   '/home/local/ZOHOCORP/somes-8229/.local/lib/python2.7/site-packages/cryptography/hazmat/primitives/asymmetric/x25519.py',
   'PYMODULE'),
  ('cryptography.hazmat.backends.openssl.dsa',
   '/home/local/ZOHOCORP/somes-8229/.local/lib/python2.7/site-packages/cryptography/hazmat/backends/openssl/dsa.py',
   'PYMODULE'),
  ('cryptography.hazmat.backends.openssl.x448',
   '/home/local/ZOHOCORP/somes-8229/.local/lib/python2.7/site-packages/cryptography/hazmat/backends/openssl/x448.py',
   'PYMODULE'),
  ('cryptography.hazmat.primitives.asymmetric.x448',
   '/home/local/ZOHOCORP/somes-8229/.local/lib/python2.7/site-packages/cryptography/hazmat/primitives/asymmetric/x448.py',
   'PYMODULE'),
  ('cryptography.hazmat.backends.openssl.hmac',
   '/home/local/ZOHOCORP/somes-8229/.local/lib/python2.7/site-packages/cryptography/hazmat/backends/openssl/hmac.py',
   'PYMODULE'),
  ('cryptography.hazmat.backends.openssl.ocsp',
   '/home/local/ZOHOCORP/somes-8229/.local/lib/python2.7/site-packages/cryptography/hazmat/backends/openssl/ocsp.py',
   'PYMODULE'),
  ('cryptography.hazmat.backends.openssl.ec',
   '/home/local/ZOHOCORP/somes-8229/.local/lib/python2.7/site-packages/cryptography/hazmat/backends/openssl/ec.py',
   'PYMODULE'),
  ('cryptography.hazmat.backends.openssl.hashes',
   '/home/local/ZOHOCORP/somes-8229/.local/lib/python2.7/site-packages/cryptography/hazmat/backends/openssl/hashes.py',
   'PYMODULE'),
  ('cryptography.hazmat.backends.openssl.rsa',
   '/home/local/ZOHOCORP/somes-8229/.local/lib/python2.7/site-packages/cryptography/hazmat/backends/openssl/rsa.py',
   'PYMODULE'),
  ('cryptography.hazmat.backends.openssl.utils',
   '/home/local/ZOHOCORP/somes-8229/.local/lib/python2.7/site-packages/cryptography/hazmat/backends/openssl/utils.py',
   'PYMODULE'),
  ('cryptography.hazmat.primitives.asymmetric.utils',
   '/home/local/ZOHOCORP/somes-8229/.local/lib/python2.7/site-packages/cryptography/hazmat/primitives/asymmetric/utils.py',
   'PYMODULE'),
  ('cryptography.hazmat.backends.openssl.ed25519',
   '/home/local/ZOHOCORP/somes-8229/.local/lib/python2.7/site-packages/cryptography/hazmat/backends/openssl/ed25519.py',
   'PYMODULE'),
  ('cryptography.hazmat.backends.openssl.encode_asn1',
   '/home/local/ZOHOCORP/somes-8229/.local/lib/python2.7/site-packages/cryptography/hazmat/backends/openssl/encode_asn1.py',
   'PYMODULE'),
  ('cryptography.x509',
   '/home/local/ZOHOCORP/somes-8229/.local/lib/python2.7/site-packages/cryptography/x509/__init__.py',
   'PYMODULE'),
  ('cryptography.__about__',
   '/home/local/ZOHOCORP/somes-8229/.local/lib/python2.7/site-packages/cryptography/__about__.py',
   'PYMODULE'),
  ('six',
   '/home/local/ZOHOCORP/somes-8229/.local/lib/python2.7/site-packages/six.py',
   'PYMODULE'),
  ('cryptography.hazmat.primitives.ciphers.algorithms',
   '/home/local/ZOHOCORP/somes-8229/.local/lib/python2.7/site-packages/cryptography/hazmat/primitives/ciphers/algorithms.py',
   'PYMODULE'),
  ('cryptography.hazmat.primitives.ciphers',
   '/home/local/ZOHOCORP/somes-8229/.local/lib/python2.7/site-packages/cryptography/hazmat/primitives/ciphers/__init__.py',
   'PYMODULE'),
  ('cryptography.hazmat.primitives.ciphers.base',
   '/home/local/ZOHOCORP/somes-8229/.local/lib/python2.7/site-packages/cryptography/hazmat/primitives/ciphers/base.py',
   'PYMODULE'),
  ('cryptography.hazmat.primitives.serialization',
   '/home/local/ZOHOCORP/somes-8229/.local/lib/python2.7/site-packages/cryptography/hazmat/primitives/serialization/__init__.py',
   'PYMODULE'),
  ('cryptography.hazmat.primitives.serialization.base',
   '/home/local/ZOHOCORP/somes-8229/.local/lib/python2.7/site-packages/cryptography/hazmat/primitives/serialization/base.py',
   'PYMODULE'),
  ('cryptography.hazmat.primitives',
   '/home/local/ZOHOCORP/somes-8229/.local/lib/python2.7/site-packages/cryptography/hazmat/primitives/__init__.py',
   'PYMODULE'),
  ('cryptography.hazmat.backends',
   '/home/local/ZOHOCORP/somes-8229/.local/lib/python2.7/site-packages/cryptography/hazmat/backends/__init__.py',
   'PYMODULE'),
  ('paramiko.agent',
   '/home/local/ZOHOCORP/somes-8229/.local/lib/python2.7/site-packages/paramiko/agent.py',
   'PYMODULE'),
  ('paramiko.win_pageant',
   '/home/local/ZOHOCORP/somes-8229/.local/lib/python2.7/site-packages/paramiko/win_pageant.py',
   'PYMODULE'),
  ('paramiko.file',
   '/home/local/ZOHOCORP/somes-8229/.local/lib/python2.7/site-packages/paramiko/file.py',
   'PYMODULE'),
  ('paramiko.packet',
   '/home/local/ZOHOCORP/somes-8229/.local/lib/python2.7/site-packages/paramiko/packet.py',
   'PYMODULE'),
  ('paramiko.message',
   '/home/local/ZOHOCORP/somes-8229/.local/lib/python2.7/site-packages/paramiko/message.py',
   'PYMODULE'),
  ('paramiko.sftp_file',
   '/home/local/ZOHOCORP/somes-8229/.local/lib/python2.7/site-packages/paramiko/sftp_file.py',
   'PYMODULE'),
  ('paramiko.sftp_si',
   '/home/local/ZOHOCORP/somes-8229/.local/lib/python2.7/site-packages/paramiko/sftp_si.py',
   'PYMODULE'),
  ('paramiko.sftp_handle',
   '/home/local/ZOHOCORP/somes-8229/.local/lib/python2.7/site-packages/paramiko/sftp_handle.py',
   'PYMODULE'),
  ('paramiko.sftp_attr',
   '/home/local/ZOHOCORP/somes-8229/.local/lib/python2.7/site-packages/paramiko/sftp_attr.py',
   'PYMODULE'),
  ('paramiko.sftp_server',
   '/home/local/ZOHOCORP/somes-8229/.local/lib/python2.7/site-packages/paramiko/sftp_server.py',
   'PYMODULE'),
  ('paramiko.sftp_client',
   '/home/local/ZOHOCORP/somes-8229/.local/lib/python2.7/site-packages/paramiko/sftp_client.py',
   'PYMODULE'),
  ('paramiko.sftp',
   '/home/local/ZOHOCORP/somes-8229/.local/lib/python2.7/site-packages/paramiko/sftp.py',
   'PYMODULE'),
  ('paramiko.ed25519key',
   '/home/local/ZOHOCORP/somes-8229/.local/lib/python2.7/site-packages/paramiko/ed25519key.py',
   'PYMODULE'),
  ('nacl.signing',
   '/home/local/ZOHOCORP/somes-8229/.local/lib/python2.7/site-packages/nacl/signing.py',
   'PYMODULE'),
  ('nacl.utils',
   '/home/local/ZOHOCORP/somes-8229/.local/lib/python2.7/site-packages/nacl/utils.py',
   'PYMODULE'),
  ('nacl.public',
   '/home/local/ZOHOCORP/somes-8229/.local/lib/python2.7/site-packages/nacl/public.py',
   'PYMODULE'),
  ('nacl.exceptions',
   '/home/local/ZOHOCORP/somes-8229/.local/lib/python2.7/site-packages/nacl/exceptions.py',
   'PYMODULE'),
  ('nacl.encoding',
   '/home/local/ZOHOCORP/somes-8229/.local/lib/python2.7/site-packages/nacl/encoding.py',
   'PYMODULE'),
  ('nacl',
   '/home/local/ZOHOCORP/somes-8229/.local/lib/python2.7/site-packages/nacl/__init__.py',
   'PYMODULE'),
  ('nacl.bindings',
   '/home/local/ZOHOCORP/somes-8229/.local/lib/python2.7/site-packages/nacl/bindings/__init__.py',
   'PYMODULE'),
  ('nacl.bindings.utils',
   '/home/local/ZOHOCORP/somes-8229/.local/lib/python2.7/site-packages/nacl/bindings/utils.py',
   'PYMODULE'),
  ('nacl.bindings.sodium_core',
   '/home/local/ZOHOCORP/somes-8229/.local/lib/python2.7/site-packages/nacl/bindings/sodium_core.py',
   'PYMODULE'),
  ('nacl.bindings.randombytes',
   '/home/local/ZOHOCORP/somes-8229/.local/lib/python2.7/site-packages/nacl/bindings/randombytes.py',
   'PYMODULE'),
  ('nacl.bindings.crypto_sign',
   '/home/local/ZOHOCORP/somes-8229/.local/lib/python2.7/site-packages/nacl/bindings/crypto_sign.py',
   'PYMODULE'),
  ('nacl.bindings.crypto_shorthash',
   '/home/local/ZOHOCORP/somes-8229/.local/lib/python2.7/site-packages/nacl/bindings/crypto_shorthash.py',
   'PYMODULE'),
  ('nacl.bindings.crypto_secretstream',
   '/home/local/ZOHOCORP/somes-8229/.local/lib/python2.7/site-packages/nacl/bindings/crypto_secretstream.py',
   'PYMODULE'),
  ('nacl.bindings.crypto_secretbox',
   '/home/local/ZOHOCORP/somes-8229/.local/lib/python2.7/site-packages/nacl/bindings/crypto_secretbox.py',
   'PYMODULE'),
  ('nacl.bindings.crypto_scalarmult',
   '/home/local/ZOHOCORP/somes-8229/.local/lib/python2.7/site-packages/nacl/bindings/crypto_scalarmult.py',
   'PYMODULE'),
  ('nacl.bindings.crypto_pwhash',
   '/home/local/ZOHOCORP/somes-8229/.local/lib/python2.7/site-packages/nacl/bindings/crypto_pwhash.py',
   'PYMODULE'),
  ('nacl.bindings.crypto_kx',
   '/home/local/ZOHOCORP/somes-8229/.local/lib/python2.7/site-packages/nacl/bindings/crypto_kx.py',
   'PYMODULE'),
  ('nacl.bindings.crypto_hash',
   '/home/local/ZOHOCORP/somes-8229/.local/lib/python2.7/site-packages/nacl/bindings/crypto_hash.py',
   'PYMODULE'),
  ('nacl.bindings.crypto_generichash',
   '/home/local/ZOHOCORP/somes-8229/.local/lib/python2.7/site-packages/nacl/bindings/crypto_generichash.py',
   'PYMODULE'),
  ('nacl.bindings.crypto_box',
   '/home/local/ZOHOCORP/somes-8229/.local/lib/python2.7/site-packages/nacl/bindings/crypto_box.py',
   'PYMODULE'),
  ('nacl.bindings.crypto_aead',
   '/home/local/ZOHOCORP/somes-8229/.local/lib/python2.7/site-packages/nacl/bindings/crypto_aead.py',
   'PYMODULE'),
  ('bcrypt',
   '/home/local/ZOHOCORP/somes-8229/.local/lib/python2.7/site-packages/bcrypt/__init__.py',
   'PYMODULE'),
  ('bcrypt.__about__',
   '/home/local/ZOHOCORP/somes-8229/.local/lib/python2.7/site-packages/bcrypt/__about__.py',
   'PYMODULE'),
  ('paramiko.ecdsakey',
   '/home/local/ZOHOCORP/somes-8229/.local/lib/python2.7/site-packages/paramiko/ecdsakey.py',
   'PYMODULE'),
  ('paramiko.dsskey',
   '/home/local/ZOHOCORP/somes-8229/.local/lib/python2.7/site-packages/paramiko/dsskey.py',
   'PYMODULE'),
  ('paramiko.ber',
   '/home/local/ZOHOCORP/somes-8229/.local/lib/python2.7/site-packages/paramiko/ber.py',
   'PYMODULE'),
  ('paramiko.rsakey',
   '/home/local/ZOHOCORP/somes-8229/.local/lib/python2.7/site-packages/paramiko/rsakey.py',
   'PYMODULE'),
  ('paramiko.server',
   '/home/local/ZOHOCORP/somes-8229/.local/lib/python2.7/site-packages/paramiko/server.py',
   'PYMODULE'),
  ('paramiko.ssh_exception',
   '/home/local/ZOHOCORP/somes-8229/.local/lib/python2.7/site-packages/paramiko/ssh_exception.py',
   'PYMODULE'),
  ('paramiko.channel',
   '/home/local/ZOHOCORP/somes-8229/.local/lib/python2.7/site-packages/paramiko/channel.py',
   'PYMODULE'),
  ('paramiko.buffered_pipe',
   '/home/local/ZOHOCORP/somes-8229/.local/lib/python2.7/site-packages/paramiko/buffered_pipe.py',
   'PYMODULE'),
  ('paramiko.ssh_gss',
   '/home/local/ZOHOCORP/somes-8229/.local/lib/python2.7/site-packages/paramiko/ssh_gss.py',
   'PYMODULE'),
  ('pyasn1.codec.der.decoder',
   '/home/local/ZOHOCORP/somes-8229/.local/lib/python2.7/site-packages/pyasn1/codec/der/decoder.py',
   'PYMODULE'),
  ('pyasn1.type',
   '/home/local/ZOHOCORP/somes-8229/.local/lib/python2.7/site-packages/pyasn1/type/__init__.py',
   'PYMODULE'),
  ('pyasn1.type.useful',
   '/home/local/ZOHOCORP/somes-8229/.local/lib/python2.7/site-packages/pyasn1/type/useful.py',
   'PYMODULE'),
  ('pyasn1.compat.string',
   '/home/local/ZOHOCORP/somes-8229/.local/lib/python2.7/site-packages/pyasn1/compat/string.py',
   'PYMODULE'),
  ('pyasn1.compat.dateandtime',
   '/home/local/ZOHOCORP/somes-8229/.local/lib/python2.7/site-packages/pyasn1/compat/dateandtime.py',
   'PYMODULE'),
  ('pyasn1.compat',
   '/home/local/ZOHOCORP/somes-8229/.local/lib/python2.7/site-packages/pyasn1/compat/__init__.py',
   'PYMODULE'),
  ('pyasn1.compat.integer',
   '/home/local/ZOHOCORP/somes-8229/.local/lib/python2.7/site-packages/pyasn1/compat/integer.py',
   'PYMODULE'),
  ('pyasn1.compat.octets',
   '/home/local/ZOHOCORP/somes-8229/.local/lib/python2.7/site-packages/pyasn1/compat/octets.py',
   'PYMODULE'),
  ('pyasn1.compat.binary',
   '/home/local/ZOHOCORP/somes-8229/.local/lib/python2.7/site-packages/pyasn1/compat/binary.py',
   'PYMODULE'),
  ('pyasn1.compat.calling',
   '/home/local/ZOHOCORP/somes-8229/.local/lib/python2.7/site-packages/pyasn1/compat/calling.py',
   'PYMODULE'),
  ('pyasn1.error',
   '/home/local/ZOHOCORP/somes-8229/.local/lib/python2.7/site-packages/pyasn1/error.py',
   'PYMODULE'),
  ('pyasn1.type.char',
   '/home/local/ZOHOCORP/somes-8229/.local/lib/python2.7/site-packages/pyasn1/type/char.py',
   'PYMODULE'),
  ('pyasn1.type.namedval',
   '/home/local/ZOHOCORP/somes-8229/.local/lib/python2.7/site-packages/pyasn1/type/namedval.py',
   'PYMODULE'),
  ('pyasn1.type.namedtype',
   '/home/local/ZOHOCORP/somes-8229/.local/lib/python2.7/site-packages/pyasn1/type/namedtype.py',
   'PYMODULE'),
  ('pyasn1.type.base',
   '/home/local/ZOHOCORP/somes-8229/.local/lib/python2.7/site-packages/pyasn1/type/base.py',
   'PYMODULE'),
  ('pyasn1.type.tagmap',
   '/home/local/ZOHOCORP/somes-8229/.local/lib/python2.7/site-packages/pyasn1/type/tagmap.py',
   'PYMODULE'),
  ('pyasn1.type.tag',
   '/home/local/ZOHOCORP/somes-8229/.local/lib/python2.7/site-packages/pyasn1/type/tag.py',
   'PYMODULE'),
  ('pyasn1.type.constraint',
   '/home/local/ZOHOCORP/somes-8229/.local/lib/python2.7/site-packages/pyasn1/type/constraint.py',
   'PYMODULE'),
  ('pyasn1.type.error',
   '/home/local/ZOHOCORP/somes-8229/.local/lib/python2.7/site-packages/pyasn1/type/error.py',
   'PYMODULE'),
  ('pyasn1',
   '/home/local/ZOHOCORP/somes-8229/.local/lib/python2.7/site-packages/pyasn1/__init__.py',
   'PYMODULE'),
  ('pyasn1.debug',
   '/home/local/ZOHOCORP/somes-8229/.local/lib/python2.7/site-packages/pyasn1/debug.py',
   'PYMODULE'),
  ('pyasn1.codec.cer.decoder',
   '/home/local/ZOHOCORP/somes-8229/.local/lib/python2.7/site-packages/pyasn1/codec/cer/decoder.py',
   'PYMODULE'),
  ('pyasn1.codec.ber.decoder',
   '/home/local/ZOHOCORP/somes-8229/.local/lib/python2.7/site-packages/pyasn1/codec/ber/decoder.py',
   'PYMODULE'),
  ('pyasn1.codec.ber.eoo',
   '/home/local/ZOHOCORP/somes-8229/.local/lib/python2.7/site-packages/pyasn1/codec/ber/eoo.py',
   'PYMODULE'),
  ('pyasn1.codec.ber',
   '/home/local/ZOHOCORP/somes-8229/.local/lib/python2.7/site-packages/pyasn1/codec/ber/__init__.py',
   'PYMODULE'),
  ('pyasn1.codec.ber.encoder',
   '/home/local/ZOHOCORP/somes-8229/.local/lib/python2.7/site-packages/pyasn1/codec/ber/encoder.py',
   'PYMODULE'),
  ('pyasn1.codec',
   '/home/local/ZOHOCORP/somes-8229/.local/lib/python2.7/site-packages/pyasn1/codec/__init__.py',
   'PYMODULE'),
  ('pyasn1.codec.cer',
   '/home/local/ZOHOCORP/somes-8229/.local/lib/python2.7/site-packages/pyasn1/codec/cer/__init__.py',
   'PYMODULE'),
  ('pyasn1.codec.cer.encoder',
   '/home/local/ZOHOCORP/somes-8229/.local/lib/python2.7/site-packages/pyasn1/codec/cer/encoder.py',
   'PYMODULE'),
  ('pyasn1.codec.der.encoder',
   '/home/local/ZOHOCORP/somes-8229/.local/lib/python2.7/site-packages/pyasn1/codec/der/encoder.py',
   'PYMODULE'),
  ('pyasn1.codec.der',
   '/home/local/ZOHOCORP/somes-8229/.local/lib/python2.7/site-packages/pyasn1/codec/der/__init__.py',
   'PYMODULE'),
  ('pyasn1.type.univ',
   '/home/local/ZOHOCORP/somes-8229/.local/lib/python2.7/site-packages/pyasn1/type/univ.py',
   'PYMODULE'),
  ('paramiko.auth_handler',
   '/home/local/ZOHOCORP/somes-8229/.local/lib/python2.7/site-packages/paramiko/auth_handler.py',
   'PYMODULE'),
  ('paramiko.client',
   '/home/local/ZOHOCORP/somes-8229/.local/lib/python2.7/site-packages/paramiko/client.py',
   'PYMODULE'),
  ('paramiko._winapi',
   '/home/local/ZOHOCORP/somes-8229/.local/lib/python2.7/site-packages/paramiko/_winapi.py',
   'PYMODULE'),
  ('paramiko.transport',
   '/home/local/ZOHOCORP/somes-8229/.local/lib/python2.7/site-packages/paramiko/transport.py',
   'PYMODULE'),
  ('paramiko.primes',
   '/home/local/ZOHOCORP/somes-8229/.local/lib/python2.7/site-packages/paramiko/primes.py',
   'PYMODULE'),
  ('paramiko.kex_gss',
   '/home/local/ZOHOCORP/somes-8229/.local/lib/python2.7/site-packages/paramiko/kex_gss.py',
   'PYMODULE'),
  ('paramiko.kex_ecdh_nist',
   '/home/local/ZOHOCORP/somes-8229/.local/lib/python2.7/site-packages/paramiko/kex_ecdh_nist.py',
   'PYMODULE'),
  ('paramiko.kex_group14',
   '/home/local/ZOHOCORP/somes-8229/.local/lib/python2.7/site-packages/paramiko/kex_group14.py',
   'PYMODULE'),
  ('paramiko.kex_group1',
   '/home/local/ZOHOCORP/somes-8229/.local/lib/python2.7/site-packages/paramiko/kex_group1.py',
   'PYMODULE'),
  ('paramiko.kex_gex',
   '/home/local/ZOHOCORP/somes-8229/.local/lib/python2.7/site-packages/paramiko/kex_gex.py',
   'PYMODULE'),
  ('paramiko.compress',
   '/home/local/ZOHOCORP/somes-8229/.local/lib/python2.7/site-packages/paramiko/compress.py',
   'PYMODULE'),
  ('paramiko.pipe',
   '/home/local/ZOHOCORP/somes-8229/.local/lib/python2.7/site-packages/paramiko/pipe.py',
   'PYMODULE'),
  ('paramiko.util',
   '/home/local/ZOHOCORP/somes-8229/.local/lib/python2.7/site-packages/paramiko/util.py',
   'PYMODULE'),
  ('paramiko._version',
   '/home/local/ZOHOCORP/somes-8229/.local/lib/python2.7/site-packages/paramiko/_version.py',
   'PYMODULE'),
  ('os', '/usr/lib/python2.7/os.py', 'PYMODULE'),
  ('os2emxpath', '/usr/lib/python2.7/os2emxpath.py', 'PYMODULE'),
  ('ntpath', '/usr/lib/python2.7/ntpath.py', 'PYMODULE')],
 [('libz.so.1', '/lib/x86_64-linux-gnu/libz.so.1', 'BINARY'),
  ('_multibytecodec',
   '/usr/lib/python2.7/lib-dynload/_multibytecodec.x86_64-linux-gnu.so',
   'EXTENSION'),
  ('_codecs_cn',
   '/usr/lib/python2.7/lib-dynload/_codecs_cn.x86_64-linux-gnu.so',
   'EXTENSION'),
  ('_codecs_jp',
   '/usr/lib/python2.7/lib-dynload/_codecs_jp.x86_64-linux-gnu.so',
   'EXTENSION'),
  ('_codecs_hk',
   '/usr/lib/python2.7/lib-dynload/_codecs_hk.x86_64-linux-gnu.so',
   'EXTENSION'),
  ('_codecs_tw',
   '/usr/lib/python2.7/lib-dynload/_codecs_tw.x86_64-linux-gnu.so',
   'EXTENSION'),
  ('_codecs_iso2022',
   '/usr/lib/python2.7/lib-dynload/_codecs_iso2022.x86_64-linux-gnu.so',
   'EXTENSION'),
  ('bz2',
   '/usr/lib/python2.7/lib-dynload/bz2.x86_64-linux-gnu.so',
   'EXTENSION'),
  ('_codecs_kr',
   '/usr/lib/python2.7/lib-dynload/_codecs_kr.x86_64-linux-gnu.so',
   'EXTENSION'),
  ('_hashlib',
   '/usr/lib/python2.7/lib-dynload/_hashlib.x86_64-linux-gnu.so',
   'EXTENSION'),
  ('readline',
   '/usr/lib/python2.7/lib-dynload/readline.x86_64-linux-gnu.so',
   'EXTENSION'),
  ('_ssl',
   '/usr/lib/python2.7/lib-dynload/_ssl.x86_64-linux-gnu.so',
   'EXTENSION'),
  ('_bsddb',
   '/usr/lib/python2.7/lib-dynload/_bsddb.x86_64-linux-gnu.so',
   'EXTENSION'),
  ('dbm',
   '/usr/lib/python2.7/lib-dynload/dbm.x86_64-linux-gnu.so',
   'EXTENSION'),
  ('resource',
   '/usr/lib/python2.7/lib-dynload/resource.x86_64-linux-gnu.so',
   'EXTENSION'),
  ('_testcapi',
   '/usr/lib/python2.7/lib-dynload/_testcapi.x86_64-linux-gnu.so',
   'EXTENSION'),
  ('_ctypes',
   '/usr/lib/python2.7/lib-dynload/_ctypes.x86_64-linux-gnu.so',
   'EXTENSION'),
  ('pyexpat',
   '/usr/lib/python2.7/lib-dynload/pyexpat.x86_64-linux-gnu.so',
   'EXTENSION'),
  ('termios',
   '/usr/lib/python2.7/lib-dynload/termios.x86_64-linux-gnu.so',
   'EXTENSION'),
  ('future_builtins',
   '/usr/lib/python2.7/lib-dynload/future_builtins.x86_64-linux-gnu.so',
   'EXTENSION'),
  ('_cffi_backend',
   '/home/local/ZOHOCORP/somes-8229/.local/lib/python2.7/site-packages/_cffi_backend.so',
   'EXTENSION'),
  ('cryptography.hazmat.bindings._openssl',
   '/home/local/ZOHOCORP/somes-8229/.local/lib/python2.7/site-packages/cryptography/hazmat/bindings/_openssl.so',
   'EXTENSION'),
  ('cryptography.hazmat.bindings._constant_time',
   '/home/local/ZOHOCORP/somes-8229/.local/lib/python2.7/site-packages/cryptography/hazmat/bindings/_constant_time.so',
   'EXTENSION'),
  ('nacl._sodium',
   '/home/local/ZOHOCORP/somes-8229/.local/lib/python2.7/site-packages/nacl/_sodium.so',
   'EXTENSION'),
  ('bcrypt._bcrypt',
   '/home/local/ZOHOCORP/somes-8229/.local/lib/python2.7/site-packages/bcrypt/_bcrypt.so',
   'EXTENSION'),
  ('libbz2.so.1.0', '/lib/x86_64-linux-gnu/libbz2.so.1.0', 'BINARY'),
  ('libcrypto.so.1.1',
   '/usr/lib/x86_64-linux-gnu/libcrypto.so.1.1',
   'BINARY'),
  ('libtinfo.so.5', '/lib/x86_64-linux-gnu/libtinfo.so.5', 'BINARY'),
  ('libreadline.so.7', '/lib/x86_64-linux-gnu/libreadline.so.7', 'BINARY'),
  ('libssl.so.1.1', '/usr/lib/x86_64-linux-gnu/libssl.so.1.1', 'BINARY'),
  ('libdb-5.3.so', '/usr/lib/x86_64-linux-gnu/libdb-5.3.so', 'BINARY'),
  ('libffi.so.6', '/usr/lib/x86_64-linux-gnu/libffi.so.6', 'BINARY'),
  ('libexpat.so.1', '/lib/x86_64-linux-gnu/libexpat.so.1', 'BINARY'),
  ('libffi-45372312.so.6.0.4',
   '/home/local/ZOHOCORP/somes-8229/.local/lib/python2.7/site-packages/.libs_cffi_backend/libffi-45372312.so.6.0.4',
   'BINARY'),
  ('libpython2.7.so.1.0',
   '/usr/lib/x86_64-linux-gnu/libpython2.7.so.1.0',
   'BINARY')],
 [],
 [],
 [('cryptography-2.6.1-py2.7.egg-info/top_level.txt',
   '/home/local/ZOHOCORP/somes-8229/.local/lib/python2.7/site-packages/cryptography-2.6.1.dist-info/top_level.txt',
   'DATA'),
  ('cryptography-2.6.1-py2.7.egg-info/METADATA',
   '/home/local/ZOHOCORP/somes-8229/.local/lib/python2.7/site-packages/cryptography-2.6.1.dist-info/METADATA',
   'DATA'),
  ('cryptography-2.6.1-py2.7.egg-info/WHEEL',
   '/home/local/ZOHOCORP/somes-8229/.local/lib/python2.7/site-packages/cryptography-2.6.1.dist-info/WHEEL',
   'DATA'),
  ('cryptography-2.6.1-py2.7.egg-info/RECORD',
   '/home/local/ZOHOCORP/somes-8229/.local/lib/python2.7/site-packages/cryptography-2.6.1.dist-info/RECORD',
   'DATA'),
  ('lib/python2.7/config-x86_64-linux-gnu/Makefile',
   '/usr/lib/python2.7/config-x86_64-linux-gnu/Makefile',
   'DATA'),
  ('cryptography-2.6.1-py2.7.egg-info/INSTALLER',
   '/home/local/ZOHOCORP/somes-8229/.local/lib/python2.7/site-packages/cryptography-2.6.1.dist-info/INSTALLER',
   'DATA'),
  ('include/python2.7/pyconfig.h',
   '/usr/include/python2.7/pyconfig.h',
   'DATA')],
 [])
