('/home/local/ZOHOCORP/somes-8229/Workspace/04_ResAndDev/Python-RemoteExce/source/dist/connection',
 True,
 False,
 False,
 None,
 None,
 False,
 False,
 None,
 True,
 'connection.pkg',
 [('PYZ-00.pyz',
   '/home/local/ZOHOCORP/somes-8229/Workspace/04_ResAndDev/Python-RemoteExce/source/build/connection/PYZ-00.pyz',
   'PYZ'),
  ('struct', '/usr/lib/python2.7/struct.pyc', 'PYMODULE'),
  ('pyimod01_os_path',
   '/home/local/ZOHOCORP/somes-8229/.local/lib/python2.7/site-packages/PyInstaller/loader/pyimod01_os_path.pyc',
   'PYMODULE'),
  ('pyimod02_archive',
   '/home/local/ZOHOCORP/somes-8229/.local/lib/python2.7/site-packages/PyInstaller/loader/pyimod02_archive.pyc',
   'PYMODULE'),
  ('pyimod03_importers',
   '/home/local/ZOHOCORP/somes-8229/.local/lib/python2.7/site-packages/PyInstaller/loader/pyimod03_importers.pyc',
   'PYMODULE'),
  ('pyiboot01_bootstrap',
   '/home/local/ZOHOCORP/somes-8229/.local/lib/python2.7/site-packages/PyInstaller/loader/pyiboot01_bootstrap.py',
   'PYSOURCE'),
  ('connection',
   '/home/local/ZOHOCORP/somes-8229/Workspace/04_ResAndDev/Python-RemoteExce/source/connection.py',
   'PYSOURCE'),
  ('libz.so.1', '/lib/x86_64-linux-gnu/libz.so.1', 'BINARY'),
  ('_multibytecodec',
   '/usr/lib/python2.7/lib-dynload/_multibytecodec.x86_64-linux-gnu.so',
   'EXTENSION'),
  ('_codecs_cn',
   '/usr/lib/python2.7/lib-dynload/_codecs_cn.x86_64-linux-gnu.so',
   'EXTENSION'),
  ('_codecs_jp',
   '/usr/lib/python2.7/lib-dynload/_codecs_jp.x86_64-linux-gnu.so',
   'EXTENSION'),
  ('_codecs_hk',
   '/usr/lib/python2.7/lib-dynload/_codecs_hk.x86_64-linux-gnu.so',
   'EXTENSION'),
  ('_codecs_tw',
   '/usr/lib/python2.7/lib-dynload/_codecs_tw.x86_64-linux-gnu.so',
   'EXTENSION'),
  ('_codecs_iso2022',
   '/usr/lib/python2.7/lib-dynload/_codecs_iso2022.x86_64-linux-gnu.so',
   'EXTENSION'),
  ('bz2',
   '/usr/lib/python2.7/lib-dynload/bz2.x86_64-linux-gnu.so',
   'EXTENSION'),
  ('_codecs_kr',
   '/usr/lib/python2.7/lib-dynload/_codecs_kr.x86_64-linux-gnu.so',
   'EXTENSION'),
  ('_hashlib',
   '/usr/lib/python2.7/lib-dynload/_hashlib.x86_64-linux-gnu.so',
   'EXTENSION'),
  ('readline',
   '/usr/lib/python2.7/lib-dynload/readline.x86_64-linux-gnu.so',
   'EXTENSION'),
  ('_ssl',
   '/usr/lib/python2.7/lib-dynload/_ssl.x86_64-linux-gnu.so',
   'EXTENSION'),
  ('_bsddb',
   '/usr/lib/python2.7/lib-dynload/_bsddb.x86_64-linux-gnu.so',
   'EXTENSION'),
  ('dbm',
   '/usr/lib/python2.7/lib-dynload/dbm.x86_64-linux-gnu.so',
   'EXTENSION'),
  ('resource',
   '/usr/lib/python2.7/lib-dynload/resource.x86_64-linux-gnu.so',
   'EXTENSION'),
  ('_testcapi',
   '/usr/lib/python2.7/lib-dynload/_testcapi.x86_64-linux-gnu.so',
   'EXTENSION'),
  ('_ctypes',
   '/usr/lib/python2.7/lib-dynload/_ctypes.x86_64-linux-gnu.so',
   'EXTENSION'),
  ('pyexpat',
   '/usr/lib/python2.7/lib-dynload/pyexpat.x86_64-linux-gnu.so',
   'EXTENSION'),
  ('termios',
   '/usr/lib/python2.7/lib-dynload/termios.x86_64-linux-gnu.so',
   'EXTENSION'),
  ('future_builtins',
   '/usr/lib/python2.7/lib-dynload/future_builtins.x86_64-linux-gnu.so',
   'EXTENSION'),
  ('_cffi_backend',
   '/home/local/ZOHOCORP/somes-8229/.local/lib/python2.7/site-packages/_cffi_backend.so',
   'EXTENSION'),
  ('cryptography.hazmat.bindings._openssl',
   '/home/local/ZOHOCORP/somes-8229/.local/lib/python2.7/site-packages/cryptography/hazmat/bindings/_openssl.so',
   'EXTENSION'),
  ('cryptography.hazmat.bindings._constant_time',
   '/home/local/ZOHOCORP/somes-8229/.local/lib/python2.7/site-packages/cryptography/hazmat/bindings/_constant_time.so',
   'EXTENSION'),
  ('nacl._sodium',
   '/home/local/ZOHOCORP/somes-8229/.local/lib/python2.7/site-packages/nacl/_sodium.so',
   'EXTENSION'),
  ('bcrypt._bcrypt',
   '/home/local/ZOHOCORP/somes-8229/.local/lib/python2.7/site-packages/bcrypt/_bcrypt.so',
   'EXTENSION'),
  ('libbz2.so.1.0', '/lib/x86_64-linux-gnu/libbz2.so.1.0', 'BINARY'),
  ('libcrypto.so.1.1',
   '/usr/lib/x86_64-linux-gnu/libcrypto.so.1.1',
   'BINARY'),
  ('libtinfo.so.5', '/lib/x86_64-linux-gnu/libtinfo.so.5', 'BINARY'),
  ('libreadline.so.7', '/lib/x86_64-linux-gnu/libreadline.so.7', 'BINARY'),
  ('libssl.so.1.1', '/usr/lib/x86_64-linux-gnu/libssl.so.1.1', 'BINARY'),
  ('libdb-5.3.so', '/usr/lib/x86_64-linux-gnu/libdb-5.3.so', 'BINARY'),
  ('libffi.so.6', '/usr/lib/x86_64-linux-gnu/libffi.so.6', 'BINARY'),
  ('libexpat.so.1', '/lib/x86_64-linux-gnu/libexpat.so.1', 'BINARY'),
  ('libffi-45372312.so.6.0.4',
   '/home/local/ZOHOCORP/somes-8229/.local/lib/python2.7/site-packages/.libs_cffi_backend/libffi-45372312.so.6.0.4',
   'BINARY'),
  ('libpython2.7.so.1.0',
   '/usr/lib/x86_64-linux-gnu/libpython2.7.so.1.0',
   'BINARY'),
  ('cryptography-2.6.1-py2.7.egg-info/top_level.txt',
   '/home/local/ZOHOCORP/somes-8229/.local/lib/python2.7/site-packages/cryptography-2.6.1.dist-info/top_level.txt',
   'DATA'),
  ('cryptography-2.6.1-py2.7.egg-info/METADATA',
   '/home/local/ZOHOCORP/somes-8229/.local/lib/python2.7/site-packages/cryptography-2.6.1.dist-info/METADATA',
   'DATA'),
  ('cryptography-2.6.1-py2.7.egg-info/WHEEL',
   '/home/local/ZOHOCORP/somes-8229/.local/lib/python2.7/site-packages/cryptography-2.6.1.dist-info/WHEEL',
   'DATA'),
  ('cryptography-2.6.1-py2.7.egg-info/RECORD',
   '/home/local/ZOHOCORP/somes-8229/.local/lib/python2.7/site-packages/cryptography-2.6.1.dist-info/RECORD',
   'DATA'),
  ('lib/python2.7/config-x86_64-linux-gnu/Makefile',
   '/usr/lib/python2.7/config-x86_64-linux-gnu/Makefile',
   'DATA'),
  ('cryptography-2.6.1-py2.7.egg-info/INSTALLER',
   '/home/local/ZOHOCORP/somes-8229/.local/lib/python2.7/site-packages/cryptography-2.6.1.dist-info/INSTALLER',
   'DATA'),
  ('include/python2.7/pyconfig.h',
   '/usr/include/python2.7/pyconfig.h',
   'DATA')],
 [],
 False,
 False,
 1557335676,
 [('run',
   '/home/local/ZOHOCORP/somes-8229/.local/lib/python2.7/site-packages/PyInstaller/bootloader/Linux-64bit/run',
   'EXECUTABLE')])
